<?xml version="1.0" encoding="UTF-8" standalone="no"?>
<svg
   xmlns:dc="http://purl.org/dc/elements/1.1/"
   xmlns:cc="http://creativecommons.org/ns#"
   xmlns:rdf="http://www.w3.org/1999/02/22-rdf-syntax-ns#"
   xmlns:svg="http://www.w3.org/2000/svg"
   xmlns="http://www.w3.org/2000/svg"
   xmlns:sodipodi="http://sodipodi.sourceforge.net/DTD/sodipodi-0.dtd"
   xmlns:inkscape="http://www.inkscape.org/namespaces/inkscape"
   sodipodi:docname="hcinklogobare_baked.svg"
   inkscape:version="1.0 (4035a4fb49, 2020-05-01)"
   id="svg8"
   version="1.1"
   viewBox="0 0 120 45"
   height="45mm"
   width="120mm">
  <defs
     id="defs2" />
  <sodipodi:namedview
     inkscape:document-rotation="0"
     inkscape:window-maximized="1"
     inkscape:window-y="0"
     inkscape:window-x="1280"
     inkscape:window-height="1387"
     inkscape:window-width="2560"
     inkscape:pagecheckerboard="false"
     showgrid="false"
     inkscape:current-layer="layer1"
     inkscape:document-units="mm"
     inkscape:cy="94.308012"
     inkscape:cx="56.741157"
     inkscape:zoom="1.979899"
     inkscape:pageshadow="2"
     inkscape:pageopacity="0"
     borderopacity="1.0"
     bordercolor="#666666"
     pagecolor="#000000"
     id="base" />
  <metadata
     id="metadata5">
    <rdf:RDF>
      <cc:Work
         rdf:about="">
        <dc:format>image/svg+xml</dc:format>
        <dc:type
           rdf:resource="http://purl.org/dc/dcmitype/StillImage" />
        <dc:title />
      </cc:Work>
    </rdf:RDF>
  </metadata>
  <g
     transform="translate(0,-252)"
     id="layer1"
     inkscape:groupmode="layer"
     inkscape:label="Layer 1">
    <path
       sodipodi:nodetypes="ccccccccccccccccc"
       inkscape:connector-curvature="0"
       id="rect817"
       d="M 7.5000005,259.5 H 17.5 v 10 h 10 v -10 c 10,0 20,0 30,0 v 10 h -20 v 10 h 20 v 10 c -10,0 -20,0 -30,0 v -10 H 17.499999 v 10 H 7.5000005 Z"
       style="fill:#ffffff;fill-opacity:1;stroke:#ffffff;stroke-width:0;stroke-opacity:0.99675335" />
    <g
       id="flowRoot820"
       style="font-style:normal;font-variant:normal;font-weight:normal;font-stretch:normal;font-size:40px;line-height:1.25;font-family:sans-serif;-inkscape-font-specification:'sans-serif, Normal';font-variant-ligatures:normal;font-variant-caps:normal;font-variant-numeric:normal;font-feature-settings:normal;text-align:start;letter-spacing:0px;word-spacing:0px;writing-mode:lr-tb;text-anchor:start;fill:#000000;fill-opacity:1;stroke:none"
       transform="matrix(0.26458333,0,0,0.26458333,0.4399665,179.5)"
       aria-label="Ink">
      <path
         id="path817"
         style="font-style:normal;font-variant:normal;font-weight:normal;font-stretch:normal;font-size:93.33333588px;font-family:'Rock Salt';-inkscape-font-specification:'Rock Salt, Normal';font-variant-ligatures:normal;font-variant-caps:normal;font-variant-numeric:normal;font-feature-settings:normal;text-align:start;writing-mode:lr-tb;text-anchor:start;fill:#ffffff;fill-opacity:1"
         d="m 270.64974,401.19607 q 0,1.45833 -1.0026,2.64323 -1.00261,1.18489 -1.73177,2.27864 -1.27605,0.63802 -2.46094,0.72917 -1.09375,0.18229 -2.36979,0.63802 -0.45573,0.0911 -1.00261,0.63802 -0.72916,-0.0911 -1.45833,-0.63802 -0.72917,-0.45573 -1.45833,-0.63802 -1.00261,-0.36458 -2.64323,-0.45573 -1.54948,-0.0911 -2.27865,-0.91146 -1.27604,-1.27604 -2.1875,-3.37239 -0.82031,-2.09636 -1.36719,-4.46615 -0.45573,-2.36979 -0.72916,-4.64844 -0.1823,-2.36979 -0.1823,-4.10156 0,-2.91667 0.36459,-5.83333 0.36458,-2.91667 1.09375,-5.65104 v -0.45573 q 0,-0.45573 0,-0.72917 0.0911,-0.36458 0.0911,-0.82031 0,-0.27344 -0.0911,-0.54688 0,-0.27344 -0.27344,-0.45573 1.1849,-3.00781 1.73177,-6.19791 0.54688,-3.19011 0.82031,-6.38021 0.36459,-3.28125 0.72917,-6.47136 0.45573,-3.28125 1.27604,-6.38021 -0.0911,-0.54687 -0.18229,-1.18489 0,-0.63802 0,-1.1849 0,-1.64062 0.36458,-3.1901 0.36459,-1.64063 0.45573,-3.3724 0.0911,-0.54687 0,-1.09375 -0.0911,-0.63802 -0.0911,-1.27604 0,-4.01042 0.36458,-7.83854 0.45573,-3.82813 0.45573,-7.7474 0,-2.09635 -0.36458,-4.01041 -0.27344,-2.00521 -0.27344,-4.01042 0,-0.91146 0.0911,-1.73177 0.0912,-0.91146 0.54688,-1.64063 2.00521,-1.36718 4.73958,-1.36718 2.00521,0 3.46354,1.09375 -0.0911,0.18229 -0.0911,0.54687 0,0.45573 0.0911,0.82031 0.0912,0.36459 0.0912,0.82032 v 0.36458 q 0,0.18229 -0.0912,0.36458 0.63803,1.09375 0.82032,2.36979 0.27343,1.1849 0.27343,2.46094 0,1.1849 -0.0911,2.36979 -0.0911,1.09375 -0.0911,2.27865 0,1.64062 0,3.28125 0.0911,1.64063 0.0911,3.28125 0,4.375 -0.45573,8.65885 -0.36458,4.19271 -0.54688,8.56771 -0.18229,3.73698 -1.0026,7.29167 -0.72917,3.55469 -1.0026,7.20052 -0.0911,0.72917 -0.0911,1.45833 0.0911,0.63803 0.0911,1.45834 0,2.09635 -0.82032,4.19271 -0.82031,2.0052 -0.82031,4.28385 0,1.09375 0.36458,1.91406 -0.54687,1.45834 -1.0026,3.46354 -0.36458,2.00521 -0.72917,4.19271 -0.27343,2.09636 -0.45573,4.19271 -0.18229,2.00521 -0.18229,3.55469 0,2.1875 0.54688,4.46615 0.54687,2.1875 1.82291,4.01041 0.91146,0.27344 2.1875,0.27344 1.27605,0 2.55209,0.0911 1.27604,0.0911 2.36979,0.45572 1.09375,0.36459 1.64062,1.45834 0.0912,0.18229 0.0912,0.36458 z" />
      <path
         id="path819"
         style="font-style:normal;font-variant:normal;font-weight:normal;font-stretch:normal;font-size:93.33333588px;font-family:'Rock Salt';-inkscape-font-specification:'Rock Salt, Normal';font-variant-ligatures:normal;font-variant-caps:normal;font-variant-numeric:normal;font-feature-settings:normal;text-align:start;writing-mode:lr-tb;text-anchor:start;fill:#ffffff;fill-opacity:1"
         d="m 339.28256,336.75596 q -0.1823,1.09375 -0.54688,1.91407 -0.27344,0.72916 -0.0912,2.0052 -0.91145,0.0912 -1.45833,0.63802 -0.45573,0.45573 -0.82031,1.09375 -0.27344,0.63803 -0.63802,1.36719 -0.27344,0.63802 -0.72917,1.1849 0.72917,3.28125 0.82031,6.65364 0.0912,3.3724 0.45573,6.65365 0.45573,4.19271 1.36719,8.29427 1.0026,4.01042 1.0026,8.20313 0,1.27604 -0.0911,2.36979 0,1.09375 0,2.27864 0,0.72917 0,1.54948 0.0911,0.72917 0.0911,1.45834 0,2.64323 -0.72916,5.28646 -0.63802,2.64322 -1.00261,5.28645 -1.09375,1.00261 -1.91406,2.1875 -0.72917,1.1849 -1.54948,2.1875 -0.82031,1.00261 -1.91406,1.73177 -1.09375,0.82032 -2.73438,1.09375 -0.27343,0.91146 -1.09375,1.36719 -0.72916,0.45573 -1.27604,1.27604 h -0.18229 q -2.27865,0 -3.91927,-0.63802 -1.64063,-0.63802 -3.09896,-1.45833 -1.36719,-0.82031 -2.82552,-1.73177 -1.45833,-0.91146 -3.3724,-1.45833 -2.55208,-2.09636 -4.64843,-4.5573 -2.09636,-2.55208 -4.73959,-4.55729 -0.63802,-1.82291 -1.73177,-3.00781 -1.0026,-1.1849 -2.00521,-2.73438 -0.45573,-0.63802 -0.72916,-1.18489 -0.18229,-0.54688 -0.54688,-1.27604 -0.27344,-0.72917 -0.91146,-1.00261 -0.54687,-0.27344 -1.0026,-0.63802 -0.72917,-2.82552 -2.09635,-5.19531 -1.36719,-2.36979 -3.19011,-4.55729 -0.54687,1.0026 -0.91146,2.1875 -0.27343,1.09375 -0.54687,2.27864 -0.27344,1.09375 -0.72917,2.27865 -0.36458,1.09375 -1.0026,2.00521 v 0.27343 q 0,0.45573 0.36458,0.54688 0.36458,0.0912 0.36458,0.54687 0,0.0912 -0.0911,0.1823 0,0.0911 0,0.18229 -0.45573,0.36458 -0.72917,0.91146 -0.18229,0.54687 -0.91146,0.63802 0.0912,0.45573 0.0912,0.91146 v 0.82031 q 0,2.64323 -0.63802,5.28646 -0.54688,2.64323 -0.54688,5.3776 v 1.1849 q 0,0.63802 0.0912,1.18489 0.18229,0.54688 0.54687,1.09375 0.36459,0.54688 0.36459,1.00261 0,0.63802 -0.54688,1.18489 0.63802,0.45573 1.45834,1.00261 0.82031,0.54687 1.45833,1.18489 0.72917,0.72917 1.18489,1.45834 0.45573,0.82031 0.45573,1.73177 0,1.54948 -1.0026,2.1875 -1.0026,0.63802 -2.46094,1.0026 -1.36719,0.36458 -2.91666,0.63802 -1.45834,0.36459 -2.46094,1.1849 h -0.27344 q -1.09375,0 -1.64062,-0.63802 -0.54688,-0.63802 -1.64063,-0.63802 -1.73177,-2.82552 -2.36979,-6.38021 -0.63802,-3.46354 -0.63802,-6.65365 0,-3.91927 0.72916,-7.83854 0.63802,-3.91927 1.64063,-7.7474 0.91146,-3.82812 2.00521,-7.5651 1.18489,-3.82813 2.1875,-7.65625 l 0.0911,-0.27344 q 0,-0.45573 -0.27343,-0.63802 -0.1823,-0.18229 -0.1823,-0.54687 0,-0.1823 0.0912,-0.1823 0.27344,-0.91145 0.54688,-1.73177 0.36458,-0.82031 0.54687,-1.82291 0.54688,-2.55209 0.72917,-5.19532 0.27343,-2.73437 0.27343,-5.3776 0.0912,-2.64323 0.1823,-5.28646 0.18229,-2.73437 0.63802,-5.3776 0.72916,-0.72917 1.36718,-1.54948 0.63803,-0.82031 1.64063,-1.45834 1.82292,0.0912 3.64583,0.54688 1.82292,0.45573 3.46354,1.45833 1.09375,3.91927 1.45834,7.83854 0.45573,3.91928 1.45833,7.83855 v 0.27343 q 0,0.45573 0.45573,0.45573 0.54688,-0.0911 0.82031,0.27344 -0.18229,0.27344 -0.27343,0.63802 0,0.36458 0,0.72917 v 1.54948 q 0.18229,0.72916 0.45572,1.54948 0.27344,0.82031 1.1849,1.0026 0.45573,2.91667 1.36719,5.37761 0.91146,2.46093 2.09635,4.73958 1.1849,2.27864 2.55209,4.55729 1.36718,2.1875 2.82552,4.64844 2.27864,1.73177 3.91927,4.01041 1.64062,2.1875 3.28125,4.28386 1.73177,2.00521 3.82812,3.55469 2.1875,1.54948 5.65104,1.91406 0.45573,-0.36458 0.63803,-1.0026 l 0.45572,-1.27605 q 0.27344,-0.63802 0.54688,-1.09375 0.36458,-0.54687 1.0026,-0.82031 0.1823,-2.55208 0.36459,-5.19531 0.27343,-2.64323 1.18489,-5.01302 -0.45573,-0.82032 -0.45573,-2.00521 0,-0.91146 0.0912,-1.73177 0.18229,-0.82031 0.18229,-1.64063 0,-1.73177 -0.72917,-2.82552 0,-0.63802 0.0911,-1.27604 0.0912,-0.72917 0.54688,-1.36719 -0.72917,-1.82291 -1.1849,-3.82812 -0.36458,-2.00521 -0.36458,-4.10156 0,-1.1849 0.27343,-2.46094 -0.54687,-1.36719 -0.72916,-3.19011 l -0.36459,-3.73698 q -0.18229,-1.91406 -0.54687,-3.55468 -0.36458,-1.64063 -1.36719,-2.64323 0.54688,-0.82032 0.54688,-1.91407 0,-1.82291 -0.54688,-3.46354 -0.54687,-1.64062 -0.54687,-3.46354 0,-1.27604 0.54687,-2.55208 2.00521,0.0911 3.91927,0.45573 2.00521,0.27343 3.91927,0.27343 0.54688,0.72917 1.27604,1.1849 0.72917,0.45573 1.54948,0.91146 0.82032,0.36458 1.54948,0.82031 0.82032,0.45573 1.27605,1.27604 z" />
      <path
         id="path821"
         style="font-style:normal;font-variant:normal;font-weight:normal;font-stretch:normal;font-size:93.33333588px;font-family:'Rock Salt';-inkscape-font-specification:'Rock Salt, Normal';font-variant-ligatures:normal;font-variant-caps:normal;font-variant-numeric:normal;font-feature-settings:normal;text-align:start;writing-mode:lr-tb;text-anchor:start;fill:#ffffff;fill-opacity:1"
         d="m 420.4935,391.99034 q 0,0.72917 -0.63802,1.1849 -0.63802,0.45572 -1.45833,0.91145 l -1.64063,0.82032 q -0.82031,0.36458 -1.09375,1.0026 -1.0026,-0.27344 -2.00521,-0.36458 -0.91145,-0.0911 -1.82291,-0.0911 -1.1849,0 -2.46094,0.27344 -1.27604,0.18229 -2.00521,1.18489 -0.45573,-0.18229 -0.82031,-0.18229 h -0.72917 q -1.36719,0 -2.82552,0.18229 -1.36719,0.27344 -2.73437,0.27344 -0.72917,0 -1.45834,-0.0911 -0.63802,-0.0912 -1.18489,-0.54688 -0.82032,0.27344 -1.73177,0.27344 -1.1849,0 -2.27865,-0.36458 -1.09375,-0.36459 -2.1875,-0.82032 -1.0026,-0.54687 -2.09635,-1.0026 -1.09375,-0.45573 -2.1875,-0.72917 l -0.63803,-1.27604 q -1.45833,-0.27344 -2.73437,-0.82031 -1.1849,-0.63802 -2.36979,-1.36719 -1.1849,-0.72917 -2.36979,-1.36719 -1.09375,-0.72916 -2.27865,-1.0026 -0.45573,-0.36458 -0.82031,-0.63802 -0.36459,-0.36459 -0.54688,-1.00261 -1.18489,-0.27343 -2.1875,-0.72916 l -1.91406,-1.00261 q -0.91146,-0.54687 -2.09635,-0.91146 -1.09375,-0.45573 -2.64323,-0.54687 -0.54688,-0.82031 -1.54948,-1.54948 -1.00261,-0.72917 -2.00521,-0.72917 -0.63802,0 -1.0026,0.27344 v 0.45573 q 0,1.09375 0.63802,2.1875 0.63802,1.09375 1.64062,1.54948 -0.0911,0.18229 -0.0911,0.54687 0,0.54688 0.18229,1.09375 0.27343,0.54688 0.91146,0.72917 -0.36459,1.00261 -0.91146,2.09636 -0.54688,1.0026 -1.36719,1.91406 -0.82031,0.91146 -1.82292,1.54948 -0.91146,0.54687 -2.09635,0.54687 -0.36458,0.18229 -0.54688,0.54688 -0.0911,0.36458 -0.18229,0.82031 0,0.36458 -0.18229,0.72917 -0.0911,0.36458 -0.36458,0.54687 -0.36459,0.0911 -1.00261,0.0911 -0.91146,0 -1.54948,-0.27344 -0.63802,-0.27344 -1.36718,-0.72917 v -0.36458 q 0,-1.09375 -0.45573,-1.73177 -0.36459,-0.63802 -0.91146,-1.1849 -0.45573,-0.63802 -0.91146,-1.27604 -0.36458,-0.63802 -0.36458,-1.73177 -0.27344,0.18229 -0.63802,0.27344 -0.27344,0.0911 -0.36459,0.36458 -0.18229,-0.91146 -0.18229,-1.54948 0,-1.82291 0.54688,-3.46354 0.63802,-1.64063 0.63802,-3.46354 v -1.36719 q 0,-2.09635 -0.0911,-4.10156 -0.0912,-2.00521 -0.0912,-4.01042 0,-1.73177 0.0912,-3.37239 0.0911,-1.73178 0.36458,-3.46355 1.00261,-6.01562 1.64063,-11.9401 0.72917,-6.01563 2.27864,-11.94011 -0.0911,-0.45572 -0.27343,-0.91145 -0.0911,-0.45573 -0.0911,-0.91146 0,-0.36459 0.0911,-0.45573 0.36458,-1.82292 1.64062,-3.00781 1.27604,-1.27605 3.28125,-1.27605 h 0.27344 q 1.09375,0.45573 1.64063,1.36719 0.63802,0.82031 1.91406,0.63802 0,0.18229 -0.0911,0.36459 0,0.18229 0,0.36458 0,1.0026 0.54688,1.45833 0.54687,0.45573 1.27604,1.00261 -0.45573,0.91146 -0.63802,2.09635 -0.0911,1.1849 -0.18229,2.36979 -0.0912,1.1849 -0.36459,2.27865 -0.18229,1.09375 -0.82031,1.82292 0.36458,0.91145 0.45573,1.82291 0.0912,0.91146 0.0912,1.91406 0,1.00261 -0.0912,2.09636 -0.0912,1.0026 -0.0912,2.09635 0,1.00261 0.27344,1.82292 2.00521,0 2.27865,-1.91406 2.36979,-0.63802 4.19271,-1.73177 1.91406,-1.1849 3.64583,-2.46094 1.73177,-1.27604 3.37239,-2.64323 1.73178,-1.36719 3.82813,-2.36979 v -0.18229 q 0,-0.45573 0.27344,-0.54688 0.27343,-0.18229 0.0911,-0.82031 1.36719,-0.45573 2.27865,-1.1849 1.0026,-0.82031 1.82292,-1.73177 l 1.73177,-1.91406 q 0.91146,-1.0026 2.00521,-1.73177 0.72916,-1.54948 1.27604,-3.28125 0.63802,-1.73177 1.64062,-3.19011 1.73177,0 3.73698,0.27344 2.09636,0.27344 3.55469,1.27604 -0.18229,0.72917 0.63802,1.00261 -1.0026,3.82812 -3.00781,6.92708 -2.00521,3.00781 -5.19532,5.10417 -0.45572,1.0026 -1.18489,1.73177 -0.72917,0.72917 -1.45833,1.45833 -0.72917,0.63802 -1.45834,1.36719 -0.72916,0.72917 -1.18489,1.73177 -1.09375,0.18229 -1.91407,0.63802 -0.72916,0.45573 -1.45833,1.09375 -0.63802,0.54688 -1.45833,1.09375 -0.72917,0.45573 -1.64063,0.72917 -0.72917,0.91146 -1.73177,1.54948 -0.91146,0.63802 -1.91406,1.27604 -0.91146,0.54687 -1.73177,1.27604 -0.82032,0.63802 -1.1849,1.73177 h -2.36979 q -1.0026,1.73177 -2.64323,2.91667 -1.54948,1.09375 -3.1901,2.09635 0.27343,1.09375 1.0026,1.82292 0.72917,0.63802 1.54948,1.1849 0.91146,0.54687 1.73177,1.18489 0.91146,0.54688 1.54948,1.36719 3.82812,1.45833 7.38281,3.37239 3.55469,1.82292 6.74479,4.46615 0.1823,-0.0912 0.45573,-0.0912 0.72917,0 1.1849,0.45573 0.45573,0.36459 1.27604,0.27344 0.36458,0.91146 1.00261,1.27604 0.63802,0.27344 1.27604,0.45573 0.72916,0.18229 1.36718,0.54688 0.63803,0.36458 0.91146,1.27604 1.36719,0.0911 2.46094,0.54687 1.1849,0.45573 2.09635,1.45834 h 1.09375 q 2.91667,0 5.65105,0.54687 2.73437,0.54688 5.55989,0.54688 1.45834,0 2.82552,-0.18229 1.36719,-0.27344 2.64323,-0.91146 0.45573,0.27344 1.00261,0.54687 0.54687,0.27344 1.18489,0.27344 0.45573,0 1.36719,-0.18229 0.0911,1.0026 0.63802,1.91406 0.63802,0.91146 0.63802,2.00521 z" />
    </g>
  </g>
</svg>
